.giant[Data visualisation]
…
air_quality <- air_quality %>%
    mutate(month = factor(month),
           year = factor(year),
           day = factor(day))
```

---

```r
air_quality
```

```
# A tibble: 744 x 9
   date       year  month day   avg_aqi min_temp max_temp max_steady_wind
   <date>     <fct> <fct> <fct>   <dbl>    <int>    <int>           <int>
 1 2015-12-09 2015  12    9        89.1       16       22              11
 2 2015-12-10 2015  12    10       52.6       17       21              16
 3 2015-12-11 2015  12    11       63.0       17       21              15
 4 2015-12-12 2015  12    12      116         18       23              11
 5 2015-12-13 2015  12    13       86.9       20       28              22
 6 2015-12-14 2015  12    14       43.1       17       22              22
 7 2015-12-15 2015  12    15       42.0       16       18              24
 8 2015-12-16 2015  12    16       32.9       13       16              24
 9 2015-12-17 2015  12    17       37.7       14       17              21
10 2015-12-18 2015  12    18       74.6       14       16              15
# ... with 734 more rows, and 1 more variable: description <chr>
```
…
